module goDbManager

go 1.17

require (
	github.com/julienschmidt/httprouter v1.3.0
	github.com/lib/pq v1.10.4
	github.com/lithammer/shortuuid v3.0.0+incompatible
)

require github.com/google/uuid v1.3.0 // indirect
